R4MS Workshop 2 - Final Exercise
…
catch1 <- read_excel(here::here("data/workshop2/estuary_catch_log.xlsx"), sheet = 1)
catch2 <- read_excel(here::here("data/workshop2/estuary_catch_log.xlsx"), sheet = 2)
catch3 <- read_excel(here::here("data/workshop2/estuary_catch_log.xlsx"), sheet = 3)
catch4 <- read_excel(here::here("data/workshop2/estuary_catch_log.xlsx"), sheet = 4)

Inspect individual tabs

Here we are looking for anomalies between workbooks and any variable naming issues

The catch log was stored across four separate Excel worksheets. Before combining the datasets, each sheet was inspected to identify inconsistencies in variable names, data structure, and formatting. This step ensures that all worksheets contain compatible columns and reduces the risk of introducing errors during the row-binding process.

catch1

# A tibble: 104 × 4
   site       date                species       count
   <chr>      <dttm>              <chr>         <dbl>
 1 Lower_ross 2026-05-01 00:00:00 barramundi        6
 2 Lower_ross 2026-05-01 00:00:00 MANGROVE JACK     3
 3 Lower_ross 2026-05-01 00:00:00 bream             4
 4 Lower_ross 2026-05-01 00:00:00 flathead          2
 5 Lower_ross 2026-05-02 00:00:00 barramundi        1
 6 Lower_ross 2026-05-02 00:00:00 MANGROVE JACK     1
 7 Lower_ross 2026-05-02 00:00:00 bream             3
 8 Lower_ross 2026-05-02 00:00:00 flathead          3
 9 Lower_ross 2026-05-03 00:00:00 MANGROVE JACK     2
10 Lower_ross 2026-05-03 00:00:00 flathead          3
# ℹ 94 more rows

catch2

# A tibble: 106 × 4
   site     date                species       count
   <chr>    <dttm>              <chr>         <dbl>
 1 Mid_Ross 2026-05-01 00:00:00 barramundi        4
 2 Mid_Ross 2026-05-01 00:00:00 MANGROVE JACK     2
 3 Mid_Ross 2026-05-01 00:00:00 bream             2
 4 Mid_Ross 2026-05-01 00:00:00 flathead          3
 5 Mid_Ross 2026-05-02 00:00:00 MANGROVE JACK     1
 6 Mid_Ross 2026-05-02 00:00:00 bream             2
 7 Mid_Ross 2026-05-02 00:00:00 flathead          3
 8 Mid_Ross 2026-05-03 00:00:00 barramundi        3
 9 Mid_Ross 2026-05-03 00:00:00 MANGROVE JACK     2
10 Mid_Ross 2026-05-03 00:00:00 bream             1
# ℹ 96 more rows

catch3

# A tibble: 107 × 4
   site       date                species       count
   <chr>      <dttm>              <chr>         <dbl>
 1 ROSS MOUTH 2026-05-01 00:00:00 barramundi        3
 2 ROSS MOUTH 2026-05-01 00:00:00 MANGROVE JACK     2
 3 ROSS MOUTH 2026-05-01 00:00:00 flathead          9
 4 ROSS MOUTH 2026-05-02 00:00:00 MANGROVE JACK     1
 5 ROSS MOUTH 2026-05-02 00:00:00 bream             3
 6 ROSS MOUTH 2026-05-02 00:00:00 flathead          4
 7 ROSS MOUTH 2026-05-03 00:00:00 barramundi        1
 8 ROSS MOUTH 2026-05-03 00:00:00 MANGROVE JACK     1
 9 ROSS MOUTH 2026-05-03 00:00:00 bream             2
10 ROSS MOUTH 2026-05-03 00:00:00 flathead          7
# ℹ 97 more rows

catch4

# A tibble: 110 × 4
   site       date                species       count
   <chr>      <dttm>              <chr>         <dbl>
 1 Upper Ross 2026-05-01 00:00:00 barramundi        5
 2 Upper Ross 2026-05-01 00:00:00 bream             2
 3 Upper Ross 2026-05-01 00:00:00 flathead          6
 4 Upper Ross 2026-05-02 00:00:00 barramundi        8
 5 Upper Ross 2026-05-02 00:00:00 MANGROVE JACK     1
 6 Upper Ross 2026-05-02 00:00:00 bream             2
 7 Upper Ross 2026-05-02 00:00:00 flathead          4
 8 Upper Ross 2026-05-03 00:00:00 barramundi        4
 9 Upper Ross 2026-05-03 00:00:00 bream             2
10 Upper Ross 2026-05-04 00:00:00 barramundi        5
# ℹ 100 more rows
…
catch_data <- bind_rows(catch1, catch2, catch3, catch4)
# Clean up the environment
rm(catch1, catch2, catch3, catch4) # Clean up the environment

The four worksheets were combined into a single dataset using bind_rows(). This approach preserves all observations while stacking records from each sampling site into one master catch table for subsequent cleaning and analysis.

Preliminary checks

The preliminary inspection confirmed that the combined catch dataset contained 427 observations and four variables (site, date, species, and count). The date column was successfully imported as a POSIXct date-time object, while site and species were stored as character variables and count as a numeric variable.

Several inconsistencies were identified in the text fields. For example, species names were recorded using different naming conventions (e.g., “MANGROVE JACK” versus “barramundi”), and site names contained a mixture of uppercase and lowercase formatting. These inconsistencies would prevent reliable joins with the metadata and species dictionary tables and therefore require standardisation prior to further analysis.

catch_data

# A tibble: 427 × 4
   site       date                species       count
   <chr>      <dttm>              <chr>         <dbl>
 1 Lower_ross 2026-05-01 00:00:00 barramundi        6
 2 Lower_ross 2026-05-01 00:00:00 MANGROVE JACK     3
 3 Lower_ross 2026-05-01 00:00:00 bream             4
 4 Lower_ross 2026-05-01 00:00:00 flathead          2
 5 Lower_ross 2026-05-02 00:00:00 barramundi        1
 6 Lower_ross 2026-05-02 00:00:00 MANGROVE JACK     1
 7 Lower_ross 2026-05-02 00:00:00 bream             3
 8 Lower_ross 2026-05-02 00:00:00 flathead          3
 9 Lower_ross 2026-05-03 00:00:00 MANGROVE JACK     2
10 Lower_ross 2026-05-03 00:00:00 flathead          3
# ℹ 417 more rows
…
