Workshop 2 - Advanced data wrangling
…
pivot the data to a tidy format using two functions: pivot_longer() and pivot_wider() pivot_longer() is used to transform data from a wide format to a long format, pivot_wider() is used to transform data from a long format to a wide format. tidyr:pivot_longer() tidyr:pivot_wider()

billboard |>
  pivot_longer(
    cols = starts_with("wk"),
    names_to = "week",
    values_to = "rank"
  )

# A tibble: 24,092 × 5
   artist track                   date.entered week   rank
   <chr>  <chr>                   <date>       <chr> <dbl>
 1 2 Pac  Baby Don't Cry (Keep... 2000-02-26   wk1      87
 2 2 Pac  Baby Don't Cry (Keep... 2000-02-26   wk2      82
 3 2 Pac  Baby Don't Cry (Keep... 2000-02-26   wk3      72
 4 2 Pac  Baby Don't Cry (Keep... 2000-02-26   wk4      77
 5 2 Pac  Baby Don't Cry (Keep... 2000-02-26   wk5      87
 6 2 Pac  Baby Don't Cry (Keep... 2000-02-26   wk6      94
 7 2 Pac  Baby Don't Cry (Keep... 2000-02-26   wk7      99
 8 2 Pac  Baby Don't Cry (Keep... 2000-02-26   wk8      NA
 9 2 Pac  Baby Don't Cry (Keep... 2000-02-26   wk9      NA
10 2 Pac  Baby Don't Cry (Keep... 2000-02-26   wk10     NA
# ℹ 24,082 more rows
…
# A tibble: 6 × 3
  id    measurement value
  <chr> <chr>       <dbl>
1 A     bp1           100
2 A     bp2           120
3 B     bp1           140
4 B     bp2           115
5 C     bp1           120
6 C     bp2           125

We’ll use an example from R4DS to explore pivot_wider() looking at the cms_patient_experience dataset from the Centers of Medicare and Medicaid

cms_patient_experience

# A tibble: 500 × 5
   org_pac_id org_nm                           measure_cd measure_title prf_rate
   <chr>      <chr>                            <chr>      <chr>            <dbl>
 1 0446157747 USC CARE MEDICAL GROUP INC       CAHPS_GRP… CAHPS for MI…       63
 2 0446157747 USC CARE MEDICAL GROUP INC       CAHPS_GRP… CAHPS for MI…       87
 3 0446157747 USC CARE MEDICAL GROUP INC       CAHPS_GRP… CAHPS for MI…       86
 4 0446157747 USC CARE MEDICAL GROUP INC       CAHPS_GRP… CAHPS for MI…       57
 5 0446157747 USC CARE MEDICAL GROUP INC       CAHPS_GRP… CAHPS for MI…       85
 6 0446157747 USC CARE MEDICAL GROUP INC       CAHPS_GRP… CAHPS for MI…       24
 7 0446162697 ASSOCIATION OF UNIVERSITY PHYSI… CAHPS_GRP… CAHPS for MI…       59
 8 0446162697 ASSOCIATION OF UNIVERSITY PHYSI… CAHPS_GRP… CAHPS for MI…       85
 9 0446162697 ASSOCIATION OF UNIVERSITY PHYSI… CAHPS_GRP… CAHPS for MI…       83
10 0446162697 ASSOCIATION OF UNIVERSITY PHYSI… CAHPS_GRP… CAHPS for MI…       63
# ℹ 490 more rows
…
#
cms_patient_experience |> 
  pivot_wider(
    names_from = measure_cd,
    values_from = prf_rate
  )

# A tibble: 500 × 9
   org_pac_id org_nm           measure_title CAHPS_GRP_1 CAHPS_GRP_2 CAHPS_GRP_3
   <chr>      <chr>            <chr>               <dbl>       <dbl>       <dbl>
 1 0446157747 USC CARE MEDICA… CAHPS for MI…          63          NA          NA
 2 0446157747 USC CARE MEDICA… CAHPS for MI…          NA          87          NA
 3 0446157747 USC CARE MEDICA… CAHPS for MI…          NA          NA          86
 4 0446157747 USC CARE MEDICA… CAHPS for MI…          NA          NA          NA
 5 0446157747 USC CARE MEDICA… CAHPS for MI…          NA          NA          NA
 6 0446157747 USC CARE MEDICA… CAHPS for MI…          NA          NA          NA
 7 0446162697 ASSOCIATION OF … CAHPS for MI…          59          NA          NA
 8 0446162697 ASSOCIATION OF … CAHPS for MI…          NA          85          NA
 9 0446162697 ASSOCIATION OF … CAHPS for MI…          NA          NA          83
10 0446162697 ASSOCIATION OF … CAHPS for MI…          NA          NA          NA
# ℹ 490 more rows
# ℹ 3 more variables: CAHPS_GRP_5 <dbl>, CAHPS_GRP_8 <dbl>, CAHPS_GRP_12 <dbl>

#
cms_patient_experience |> 
  pivot_wider(
    id_cols = starts_with("org"),
    names_from = measure_cd,
    values_from = prf_rate
  )

# A tibble: 95 × 8
   org_pac_id org_nm CAHPS_GRP_1 CAHPS_GRP_2 CAHPS_GRP_3 CAHPS_GRP_5 CAHPS_GRP_8
   <chr>      <chr>        <dbl>       <dbl>       <dbl>       <dbl>       <dbl>
 1 0446157747 USC C…          63          87          86          57          85
 2 0446162697 ASSOC…          59          85          83          63          88
 3 0547164295 BEAVE…          49          NA          75          44          73
 4 0749333730 CAPE …          67          84          85          65          82
 5 0840104360 ALLIA…          66          87          87          64          87
 6 0840109864 REX H…          73          87          84          67          91
 7 0840513552 SCL H…          58          83          76          58          78
 8 0941545784 GRITM…          46          86          81          54          NA
 9 1052612785 COMMU…          65          84          80          58          87
10 1254237779 OUR L…          61          NA          NA          65          NA
# ℹ 85 more rows
# ℹ 1 more variable: CAHPS_GRP_12 <dbl>
…
