Workshop_1
…
Sift records matching multiple targeting flags within an explicit set

sub_islands <- filter(penguins, island %in% c("Dream", "Torgersen"))

Sorting and Ordering Data

The arrange() function was used to sort the dataset based on one or more variables. This allows for easy identification of patterns, trends, or outliers by ordering the data in a meaningful way.

Sort penguins by ascending body mass (Default setting: Smallest mass first)

lightest_first <- arrange(penguins, body_mass_g)
print(lightest_first)

# A tibble: 344 × 8
   species   island   bill_length_mm bill_depth_mm flipper_length_mm body_mass_g
   <fct>     <fct>             <dbl>         <dbl>             <int>       <int>
 1 Chinstrap Dream              46.9          16.6               192        2700
 2 Adelie    Biscoe             36.5          16.6               181        2850
 3 Adelie    Biscoe             36.4          17.1               184        2850
 4 Adelie    Biscoe             34.5          18.1               187        2900
 5 Adelie    Dream              33.1          16.1               178        2900
 6 Adelie    Torgers…           38.6          17                 188        2900
 7 Chinstrap Dream              43.2          16.6               187        2900
 8 Adelie    Biscoe             37.9          18.6               193        2925
 9 Adelie    Dream              37.5          18.9               179        2975
10 Adelie    Dream              37            16.9               185        3000
# ℹ 334 more rows
# ℹ 2 more variables: sex <fct>, year <int>

Sort penguins in descending sequence using the desc() layout wrapper

heaviest_first <- arrange(penguins, desc(body_mass_g))
print (heaviest_first)

# A tibble: 344 × 8
   species island bill_length_mm bill_depth_mm flipper_length_mm body_mass_g
   <fct>   <fct>           <dbl>         <dbl>             <int>       <int>
 1 Gentoo  Biscoe           49.2          15.2               221        6300
 2 Gentoo  Biscoe           59.6          17                 230        6050
 3 Gentoo  Biscoe           51.1          16.3               220        6000
 4 Gentoo  Biscoe           48.8          16.2               222        6000
 5 Gentoo  Biscoe           45.2          16.4               223        5950
 6 Gentoo  Biscoe           49.8          15.9               229        5950
 7 Gentoo  Biscoe           48.4          14.6               213        5850
 8 Gentoo  Biscoe           49.3          15.7               217        5850
 9 Gentoo  Biscoe           55.1          16                 230        5850
10 Gentoo  Biscoe           49.5          16.2               229        5800
# ℹ 334 more rows
# ℹ 2 more variables: sex <fct>, year <int>

Execute nested sorting criteria: Group by species, then sort by descending bill length

stratified_morphology <- arrange(penguins, species, desc(bill_length_mm))
print(stratified_morphology)

# A tibble: 344 × 8
   species island    bill_length_mm bill_depth_mm flipper_length_mm body_mass_g
   <fct>   <fct>              <dbl>         <dbl>             <int>       <int>
 1 Adelie  Torgersen           46            21.5               194        4200
 2 Adelie  Torgersen           45.8          18.9               197        4150
 3 Adelie  Biscoe              45.6          20.3               191        4600
 4 Adelie  Dream               44.1          19.7               196        4400
 5 Adelie  Torgersen           44.1          18                 210        4000
 6 Adelie  Dream               43.2          18.5               192        4100
 7 Adelie  Biscoe              43.2          19                 197        4775
 8 Adelie  Torgersen           43.1          19.2               197        3500
 9 Adelie  Torgersen           42.9          17.6               196        4700
10 Adelie  Torgersen           42.8          18.5               195        4250
# ℹ 334 more rows
# ℹ 2 more variables: sex <fct>, year <int>

Chaining Operations with the Pipe

The pipe operator (%>%) was used to chain multiple data manipulation steps together in a clear and readable format. This allows for a more intuitive workflow by connecting operations sequentially without the need for intermediate variables.

penguins_final <- penguins |>
  mutate(bill_ratio = bill_length_mm / bill_depth_mm) |>
  filter(species == "Adelie")
print(penguins_final)

# A tibble: 152 × 9
   species island    bill_length_mm bill_depth_mm flipper_length_mm body_mass_g
   <fct>   <fct>              <dbl>         <dbl>             <int>       <int>
 1 Adelie  Torgersen           39.1          18.7               181        3750
 2 Adelie  Torgersen           39.5          17.4               186        3800
 3 Adelie  Torgersen           40.3          18                 195        3250
 4 Adelie  Torgersen           NA            NA                  NA          NA
 5 Adelie  Torgersen           36.7          19.3               193        3450
 6 Adelie  Torgersen           39.3          20.6               190        3650
 7 Adelie  Torgersen           38.9          17.8               181        3625
 8 Adelie  Torgersen           39.2          19.6               195        4675
 9 Adelie  Torgersen           34.1          18.1               193        3475
10 Adelie  Torgersen           42            20.2               190        4250
# ℹ 142 more rows
# ℹ 3 more variables: sex <fct>, year <int>, bill_ratio <dbl>

Creating New Variables with mutate()

The mutate() function was used to create new variables based on existing ones. This allows for the derivation of additional insights or metrics that may be relevant for analysis.

Calculate a new morphological ratio in our environment

penguin_ratios <- penguins  |> 
  mutate(body_mass_kg = body_mass_g / 1000,   # Convert grams to kilograms
         bill_ratio = bill_length_mm / bill_depth_mm  # Bill ratio
  )
print(penguin_ratios)

# A tibble: 344 × 10
   species island    bill_length_mm bill_depth_mm flipper_length_mm body_mass_g
   <fct>   <fct>              <dbl>         <dbl>             <int>       <int>
 1 Adelie  Torgersen           39.1          18.7               181        3750
 2 Adelie  Torgersen           39.5          17.4               186        3800
 3 Adelie  Torgersen           40.3          18                 195        3250
 4 Adelie  Torgersen           NA            NA                  NA          NA
 5 Adelie  Torgersen           36.7          19.3               193        3450
 6 Adelie  Torgersen           39.3          20.6               190        3650
 7 Adelie  Torgersen           38.9          17.8               181        3625
 8 Adelie  Torgersen           39.2          19.6               195        4675
 9 Adelie  Torgersen           34.1          18.1               193        3475
10 Adelie  Torgersen           42            20.2               190        4250
# ℹ 334 more rows
# ℹ 4 more variables: sex <fct>, year <int>, body_mass_kg <dbl>,
#   bill_ratio <dbl>
…
Data Aggregation and Ecological Summarisation

The group_by() and summarise() functions were used to aggregate data and calculate summary statistics for specific groups within the dataset. This allows for the analysis of patterns and trends across different categories or levels of a variable.

Grouping our active memory penguins by species

grouped_penguins <- group_by(penguins, species)

Notice that the table looks identical, but metadata notes ‘Groups: species [3]’

print(grouped_penguins)

# A tibble: 344 × 8
# Groups:   species [3]
   species island    bill_length_mm bill_depth_mm flipper_length_mm body_mass_g
   <fct>   <fct>              <dbl>         <dbl>             <int>       <int>
 1 Adelie  Torgersen           39.1          18.7               181        3750
 2 Adelie  Torgersen           39.5          17.4               186        3800
 3 Adelie  Torgersen           40.3          18                 195        3250
 4 Adelie  Torgersen           NA            NA                  NA          NA
 5 Adelie  Torgersen           36.7          19.3               193        3450
 6 Adelie  Torgersen           39.3          20.6               190        3650
 7 Adelie  Torgersen           38.9          17.8               181        3625
 8 Adelie  Torgersen           39.2          19.6               195        4675
 9 Adelie  Torgersen           34.1          18.1               193        3475
10 Adelie  Torgersen           42            20.2               190        4250
# ℹ 334 more rows
# ℹ 2 more variables: sex <fct>, year <int>
…
